<?xml version="1.0" standalone="no"?>
<!DOCTYPE svg PUBLIC "-//W3C//DTD SVG 20010904//EN"
 "http://www.w3.org/TR/2001/REC-SVG-20010904/DTD/svg10.dtd">
<svg version="1.0" xmlns="http://www.w3.org/2000/svg"
 width="512.000000pt" height="512.000000pt" viewBox="0 0 512.000000 512.000000"
 preserveAspectRatio="xMidYMid meet">
<metadata>
Created by potrace 1.11, written by Peter Selinger 2001-2013
</metadata>
<g transform="translate(0.000000,512.000000) scale(0.100000,-0.100000)"
fill="#000000" stroke="none">
<path d="M184 4963 c4 -7 2 -13 -4 -13 -13 0 -9 -32 5 -42 6 -5 6 -8 -1 -8
-15 0 -14 -80 0 -80 8 0 8 -3 0 -8 -15 -10 -15 -454 0 -445 8 5 8 2 0 -8 -16
-20 -16 -219 -1 -238 8 -10 8 -13 1 -8 -9 5 -12 -118 -13 -468 0 -285 3 -476
8 -480 6 -3 8 6 5 21 -3 18 -1 23 7 18 8 -5 10 -2 6 8 -3 9 -3 19 1 22 3 4 7
13 9 21 5 27 11 50 13 53 2 1 4 7 5 12 1 6 4 13 5 18 1 4 3 12 4 17 0 6 6 19
13 30 6 11 11 23 12 28 3 26 15 57 22 57 5 0 8 3 7 8 -1 4 4 23 11 42 8 19 15
38 16 43 1 4 4 10 5 15 1 4 2 10 1 15 0 4 3 7 8 7 10 0 27 39 23 53 -1 4 3 7
8 7 6 0 10 5 10 11 0 6 9 24 21 40 11 16 18 33 15 38 -3 5 1 12 10 15 9 4 14
13 10 22 -4 10 -2 13 6 8 8 -5 9 -2 5 10 -5 14 -3 17 8 12 8 -3 14 -2 14 2 -2
15 14 52 22 52 5 0 9 7 9 15 0 8 5 15 10 15 6 0 10 7 10 15 0 8 3 15 8 15 4 0
16 12 26 27 13 17 14 24 5 19 -8 -4 -5 0 5 8 11 9 16 16 10 16 -5 1 2 7 16 15
14 8 21 14 16 15 -5 0 -1 9 8 19 10 11 15 24 12 29 -3 5 0 9 7 8 6 0 12 1 13
4 0 3 12 18 27 34 15 16 27 32 27 37 0 4 10 11 21 14 15 5 18 9 9 15 -9 5 -9
9 -1 14 6 4 11 4 11 1 0 -3 6 0 14 7 8 7 12 16 9 21 -2 4 1 7 7 7 6 0 8 4 5
10 -3 6 1 7 9 4 9 -3 16 -2 16 3 0 6 9 20 20 33 11 13 20 19 20 14 0 -5 6 2
13 16 7 14 18 25 25 25 7 0 28 17 47 38 19 21 35 35 35 31 0 -4 8 3 19 14 10
12 24 22 30 22 7 0 10 4 7 9 -3 4 10 16 29 27 18 10 32 22 29 26 -3 4 2 8 11
8 10 0 13 5 9 12 -4 6 -3 8 3 5 5 -4 19 2 29 11 10 10 27 21 37 25 11 4 15 12
11 18 -4 7 -3 9 4 5 6 -3 21 4 33 16 12 13 19 16 15 8 -4 -8 2 -4 14 10 12 14
18 19 14 11 -4 -7 7 -3 24 9 17 13 28 28 25 33 -3 6 -1 7 5 3 13 -8 63 14 56
25 -3 5 2 6 10 3 9 -3 16 -1 16 5 0 6 7 11 15 11 8 0 15 5 15 11 0 6 6 9 14 6
8 -3 17 1 20 10 4 8 13 13 21 9 8 -3 21 1 29 9 8 8 19 15 25 15 6 0 11 4 11
10 0 5 7 7 15 4 9 -4 18 1 21 11 5 13 9 14 15 4 6 -11 9 -10 14 3 4 9 13 14
20 12 7 -3 16 0 20 5 3 6 11 9 16 6 5 -4 9 -2 9 4 0 6 7 8 15 5 8 -4 17 1 21
9 3 9 12 13 20 10 8 -3 14 0 14 5 0 6 9 9 20 7 11 -2 18 0 15 4 -3 5 2 12 11
15 10 4 13 2 8 -7 -6 -9 -5 -9 7 0 15 12 96 44 116 45 6 1 9 8 6 16 -5 11 -7
11 -14 0 -6 -10 -11 -10 -20 -1 -10 10 -15 9 -24 -4 -10 -13 -14 -13 -20 -3
-6 9 -4 11 5 5 9 -5 11 -4 6 4 -6 9 -11 9 -22 0 -11 -9 -14 -8 -14 2 0 11 -2
11 -9 0 -8 -12 -12 -12 -24 -2 -10 8 -17 9 -22 1 -9 -14 -28 -13 -19 3 6 10 4
10 -7 0 -15 -15 -33 -18 -25 -5 3 5 -1 9 -9 9 -8 0 -12 -4 -9 -9 8 -13 -10
-10 -25 5 -11 10 -13 10 -7 0 4 -7 3 -13 -1 -13 -5 0 -15 6 -22 13 -11 10 -13
10 -7 0 9 -16 -10 -17 -19 -3 -5 8 -11 8 -20 0 -10 -8 -14 -7 -18 2 -4 10 -6
10 -6 -1 -1 -11 -4 -11 -18 0 -11 10 -14 10 -9 2 4 -8 1 -13 -9 -13 -10 0 -13
5 -9 13 6 9 4 9 -8 -1 -13 -10 -17 -10 -21 0 -4 10 -6 10 -6 -1 -1 -11 -4 -11
-18 0 -11 10 -14 10 -9 2 5 -9 1 -13 -11 -13 -11 0 -25 6 -32 13 -11 10 -13
10 -7 0 4 -7 2 -13 -3 -13 -6 0 -11 6 -11 13 0 8 -4 7 -10 -3 -9 -13 -11 -13
-20 0 -6 10 -10 11 -10 3 0 -7 -7 -13 -16 -13 -9 0 -12 5 -8 13 6 9 4 9 -8 -1
-13 -10 -17 -10 -21 0 -4 10 -6 10 -6 -1 -1 -11 -4 -11 -18 0 -11 10 -14 10
-9 2 4 -7 3 -13 -1 -13 -5 0 -15 6 -22 13 -11 10 -13 10 -7 0 9 -16 -10 -17
-19 -3 -5 8 -11 7 -21 -1 -11 -9 -14 -8 -14 2 0 11 -2 11 -10 -1 -9 -13 -11
-13 -20 0 -8 12 -10 12 -10 1 0 -10 -3 -11 -14 -2 -11 9 -16 9 -21 0 -6 -8
-10 -7 -16 2 -7 12 -9 12 -9 0 0 -11 -3 -11 -17 0 -11 10 -14 10 -9 2 4 -8 1
-13 -9 -13 -10 0 -13 5 -9 13 6 9 4 9 -8 -1 -13 -10 -17 -10 -21 0 -4 10 -6
10 -6 -1 -1 -11 -4 -11 -18 0 -11 10 -14 10 -9 2 5 -9 1 -13 -13 -13 -11 0
-22 4 -25 9 -7 10 -25 9 -43 -2 -6 -4 -14 -1 -16 5 -4 10 -6 9 -6 -1 -1 -10
-4 -11 -15 -2 -10 8 -16 9 -21 1 -9 -14 -28 -13 -19 3 6 10 4 10 -7 0 -7 -7
-17 -13 -22 -13 -4 0 -5 6 -1 13 5 8 2 8 -9 -2 -14 -11 -17 -11 -17 0 0 12 -2
12 -9 0 -6 -9 -10 -10 -16 -2 -5 9 -10 9 -20 1 -10 -8 -14 -7 -18 2 -4 10 -6
10 -6 -1 -1 -11 -4 -11 -18 0 -11 10 -14 10 -9 2 8 -14 -6 -18 -18 -6 -10 10
-76 11 -70 1 3 -4 -2 -8 -11 -8 -9 0 -14 4 -11 8 2 4 -11 8 -29 8 -18 0 -32
-4 -29 -8 2 -4 -5 -6 -16 -5 -11 1 -20 6 -20 12 0 5 -5 3 -10 -5 -9 -13 -11
-13 -20 0 -8 12 -10 12 -10 1 0 -11 -3 -11 -17 0 -11 10 -14 10 -9 2 4 -7 3
-13 -3 -13 -5 0 -13 5 -16 10 -5 8 -11 7 -21 -1 -11 -9 -14 -8 -14 2 0 11 -2
11 -10 -1 -9 -13 -11 -13 -20 0 -8 12 -10 12 -10 1 0 -11 -3 -11 -17 0 -11 10
-14 10 -9 2 4 -7 3 -13 -3 -13 -5 0 -13 5 -16 10 -5 8 -11 8 -20 0 -10 -8 -14
-7 -18 2 -4 10 -6 10 -6 -1 -1 -11 -4 -11 -18 0 -11 10 -14 10 -9 2z"/>
<path d="M3250 4959 c0 -6 -7 -9 -15 -6 -8 4 -17 1 -21 -6 -4 -7 -4 -9 1 -5 4
4 15 3 24 -2 13 -6 17 -4 18 11 1 10 0 19 -3 19 -2 0 -4 -5 -4 -11z"/>
<path d="M3295 4961 c6 -11 4 -13 -8 -8 -11 4 -17 1 -17 -8 0 -8 5 -16 10 -16
20 -3 25 -4 39 -13 11 -7 12 -6 6 5 -8 12 -6 12 8 0 9 -7 14 -18 10 -25 -4 -8
-2 -7 7 1 13 12 57 -1 72 -22 4 -5 8 -6 8 -1 0 5 8 2 17 -5 14 -12 16 -12 8 0
-6 11 -2 10 16 -2 13 -9 31 -17 41 -17 10 0 18 -5 18 -11 0 -5 5 -7 10 -4 6 3
10 1 10 -5 0 -6 5 -8 10 -5 6 3 10 1 10 -4 0 -6 9 -11 19 -11 11 0 23 -4 26
-10 3 -5 15 -10 26 -10 11 0 17 -4 14 -10 -4 -6 5 -10 20 -10 17 0 24 -4 19
-12 -5 -8 -2 -9 9 -5 11 4 17 1 17 -8 0 -8 6 -12 14 -9 8 3 23 -3 32 -15 10
-11 21 -18 26 -15 4 3 15 -1 23 -8 41 -37 45 -39 45 -26 0 8 5 6 11 -4 5 -10
16 -18 24 -18 8 0 20 -8 27 -19 7 -10 21 -17 30 -15 11 1 15 -3 11 -14 -4 -10
-2 -13 5 -8 6 3 13 2 17 -4 4 -6 10 -8 15 -5 5 3 11 -4 15 -15 3 -11 13 -20
21 -20 8 0 14 -6 14 -12 0 -9 4 -8 10 2 8 13 10 13 10 -2 0 -9 9 -20 20 -23
11 -4 18 -10 16 -14 -3 -4 9 -16 27 -26 18 -10 43 -29 56 -42 13 -12 28 -20
34 -16 5 3 7 1 4 -4 -4 -6 7 -21 23 -33 16 -12 27 -26 24 -31 -3 -5 3 -6 12
-2 10 4 15 2 11 -3 -3 -6 3 -16 13 -24 10 -8 16 -18 13 -24 -3 -6 -3 -8 2 -4
12 11 47 -12 41 -28 -3 -8 0 -13 7 -11 7 1 11 -4 10 -10 -2 -7 0 -12 5 -12 19
3 33 -2 27 -11 -3 -5 -1 -10 6 -10 7 0 10 -3 6 -6 -3 -3 10 -21 29 -40 19 -19
34 -39 34 -44 0 -6 5 -10 12 -10 6 0 8 -3 5 -6 -4 -4 5 -17 20 -30 15 -13 25
-26 21 -29 -3 -3 10 -22 28 -42 19 -20 34 -43 34 -50 0 -7 5 -13 10 -13 6 0
10 -7 10 -15 0 -8 5 -15 10 -15 6 0 10 -7 10 -16 0 -9 5 -12 13 -8 9 5 9 4 1
-6 -9 -9 -7 -17 7 -31 10 -10 19 -26 19 -34 0 -8 5 -15 11 -15 5 0 8 -4 4 -9
-3 -5 1 -16 9 -24 8 -8 12 -17 9 -21 -4 -3 -1 -6 6 -6 7 0 10 -4 6 -9 -3 -5
-1 -12 5 -16 5 -3 10 -15 10 -26 0 -10 7 -19 15 -19 8 0 15 -5 15 -11 0 -5 -6
-7 -12 -4 -7 4 -6 1 3 -7 9 -7 14 -19 12 -25 -3 -7 0 -13 6 -13 6 0 8 -7 5
-15 -4 -8 -1 -15 5 -15 6 0 10 -6 9 -12 -2 -7 3 -12 11 -10 11 2 12 0 3 -10
-6 -8 -7 -19 -2 -28 5 -8 6 -18 4 -22 -3 -4 2 -8 12 -8 13 0 14 -3 5 -14 -9
-11 -9 -16 1 -23 7 -4 14 -17 15 -28 3 -20 10 -56 13 -65 2 -3 2 -9 1 -14 -1
-4 4 -15 11 -24 11 -13 11 -14 -2 -7 -13 7 -13 6 0 -11 9 -10 15 -34 14 -51
-1 -18 2 -35 7 -39 5 -3 9 -10 9 -15 0 -6 -6 -7 -12 -3 -10 6 -10 4 -2 -7 6
-8 12 -36 14 -64 5 -106 5 -315 -1 -315 -4 0 -3 -16 1 -35 5 -21 4 -33 -1 -29
-6 3 -8 -10 -6 -30 3 -20 1 -39 -3 -41 -4 -2 -6 -16 -5 -30 2 -14 -2 -25 -8
-25 -7 0 -5 -5 3 -10 8 -5 10 -10 5 -10 -6 0 -11 -8 -12 -17 -5 -51 -15 -98
-23 -108 -6 -7 -6 -16 0 -23 6 -7 7 -10 3 -7 -13 10 -30 -59 -19 -74 8 -11 8
-13 -1 -8 -7 5 -14 -4 -19 -25 -4 -18 -7 -36 -6 -40 1 -5 -5 -8 -14 -8 -13 0
-14 -3 -5 -13 8 -10 7 -17 -1 -25 -7 -7 -9 -12 -4 -12 4 0 0 -7 -8 -16 -9 -8
-16 -26 -16 -40 0 -13 -5 -24 -11 -24 -6 0 -9 -6 -6 -14 3 -8 -1 -17 -10 -20
-9 -4 -13 -9 -10 -13 4 -3 1 -15 -5 -27 -7 -11 -11 -24 -10 -28 1 -5 -3 -8 -9
-8 -5 0 -8 -4 -4 -9 3 -6 -3 -14 -12 -20 -10 -6 -14 -11 -9 -11 5 0 3 -7 -4
-15 -10 -12 -10 -15 1 -16 8 0 4 -4 -9 -10 -13 -5 -21 -13 -18 -18 3 -5 0 -14
-8 -20 -8 -7 -17 -23 -20 -36 -4 -14 -11 -25 -16 -25 -6 0 -10 -5 -10 -11 0
-7 -8 -18 -17 -26 -12 -10 -13 -12 -3 -8 9 4 8 0 -3 -8 -10 -9 -19 -21 -21
-29 -3 -23 -17 -39 -28 -32 -7 5 -9 1 -5 -9 3 -9 0 -18 -9 -21 -8 -3 -14 -13
-14 -21 0 -9 -4 -13 -10 -10 -5 3 -10 1 -10 -5 0 -6 -13 -24 -30 -40 -16 -16
-30 -32 -30 -35 0 -11 -67 -75 -79 -75 -6 0 -11 -7 -11 -15 0 -9 -10 -20 -22
-25 -14 -5 -17 -9 -8 -10 13 0 13 -2 0 -9 -8 -6 -18 -7 -24 -4 -5 3 -7 2 -4
-3 4 -5 -8 -20 -24 -34 -17 -14 -43 -36 -58 -50 -14 -14 -31 -27 -36 -30 -5
-3 -8 -11 -7 -19 1 -9 -2 -10 -9 -3 -7 7 -18 3 -35 -14 -13 -13 -29 -21 -35
-18 -6 4 -8 2 -4 -4 3 -6 -3 -13 -14 -17 -11 -3 -20 -11 -20 -16 0 -6 -4 -7
-10 -4 -5 3 -10 1 -10 -4 0 -6 -7 -11 -15 -11 -8 0 -15 -4 -15 -10 0 -5 -6
-10 -14 -10 -8 0 -21 -6 -28 -13 -14 -14 -38 -25 -51 -23 -5 0 -13 -7 -18 -17
-6 -9 -14 -15 -18 -12 -5 2 -14 -2 -21 -10 -7 -8 -16 -12 -21 -9 -5 3 -9 1 -9
-5 0 -6 -7 -7 -17 -4 -10 4 -14 2 -10 -4 6 -9 -30 -25 -49 -22 -4 0 -10 -4
-14 -11 -4 -6 -13 -12 -21 -14 -8 -1 -24 -7 -35 -14 -12 -6 -24 -8 -28 -5 -3
3 -6 1 -6 -6 0 -7 -4 -10 -8 -7 -5 3 -21 -2 -37 -10 -16 -8 -35 -12 -42 -9 -8
2 -11 0 -8 -5 4 -6 -7 -10 -24 -10 -17 0 -31 -4 -31 -9 0 -5 -8 -8 -17 -6 -10
1 -23 -2 -30 -7 -6 -5 -26 -10 -43 -10 -17 -1 -33 -5 -36 -9 -2 -5 -11 -6 -19
-2 -8 3 -15 1 -15 -3 0 -5 -12 -10 -27 -10 -16 -1 -48 -5 -73 -9 -25 -3 -60
-7 -77 -7 -18 0 -33 -5 -33 -11 0 -7 -5 -5 -10 3 -5 8 -10 11 -10 5 0 -6 -50
-10 -130 -10 -72 0 -130 2 -130 5 0 3 -24 5 -53 5 -28 -1 -64 2 -79 6 -15 4
-30 4 -33 -1 -3 -5 -18 -5 -34 0 -16 4 -32 6 -35 2 -3 -3 -6 0 -6 7 0 7 -8 11
-17 10 -10 -2 -28 2 -39 9 -12 6 -24 9 -26 6 -3 -2 -16 0 -30 5 -14 5 -40 12
-58 15 -18 2 -36 8 -39 13 -6 8 -13 9 -68 15 -13 1 -23 6 -23 11 0 5 -7 7 -15
3 -8 -3 -20 0 -27 7 -8 7 -20 13 -28 15 -16 3 -25 6 -113 46 -32 14 -60 26
-63 26 -3 0 -18 9 -34 20 -15 11 -30 17 -34 13 -3 -3 -6 -1 -6 5 0 7 -7 12
-15 12 -8 0 -23 8 -33 17 -10 10 -25 19 -33 21 -8 2 -15 8 -17 13 -2 5 -9 9
-16 9 -7 0 -24 10 -37 23 -14 12 -28 22 -31 22 -4 0 -18 10 -32 22 -14 13 -26
20 -26 17 0 -2 -12 7 -26 21 -14 14 -31 22 -37 19 -7 -4 -9 -4 -5 1 6 7 -11
26 -66 73 -9 6 -21 12 -28 12 -10 0 -10 2 0 9 11 6 10 10 -5 16 -10 5 -21 7
-25 7 -5 -1 -8 2 -8 7 0 5 -18 28 -39 50 -22 23 -38 41 -36 41 1 0 -16 19 -39
43 -54 57 -76 85 -76 97 0 6 -4 10 -10 10 -5 0 -10 4 -10 10 0 5 -9 20 -20 32
-10 13 -20 28 -22 33 -1 6 -10 19 -20 29 -10 11 -18 26 -18 33 0 7 -4 13 -8
13 -4 0 -33 51 -64 112 -76 152 -102 215 -99 236 1 6 -3 12 -9 12 -6 0 -8 5
-5 10 3 6 1 10 -6 10 -7 0 -10 3 -6 6 3 4 0 21 -8 39 -7 19 -11 36 -8 39 3 3
1 12 -5 19 -7 8 -10 16 -7 19 3 3 -1 17 -9 33 -8 15 -13 36 -11 46 2 11 0 19
-4 19 -8 0 -11 16 -12 55 0 10 -5 26 -12 34 -10 12 -9 13 3 6 12 -6 13 -5 3 6
-7 7 -13 32 -13 56 0 24 -5 43 -10 43 -7 0 -7 6 0 20 6 11 7 20 2 20 -4 0 -9
30 -10 67 -1 36 -4 68 -6 70 -2 3 0 17 4 33 4 16 6 31 2 34 -7 8 -9 56 -2 56
3 0 6 21 6 48 0 26 4 79 9 117 4 39 8 78 8 88 1 9 4 17 8 17 3 0 5 14 4 30 -1
17 3 30 8 30 5 0 5 6 -2 13 -8 10 -7 17 2 26 6 6 12 20 13 29 0 9 3 24 7 32 3
8 11 35 18 60 7 25 14 52 17 60 2 8 4 23 5 33 1 9 4 17 8 17 4 0 10 14 14 30
4 17 11 30 16 30 5 0 8 3 7 8 -6 17 45 131 56 125 6 -3 8 -3 4 2 -4 4 -2 15 5
23 10 13 9 15 -3 8 -8 -4 -6 0 4 8 11 9 16 16 10 16 -5 0 0 7 10 15 11 8 14
15 7 15 -7 0 -9 5 -6 10 4 6 11 7 17 4 7 -4 8 -2 4 4 -4 7 2 22 13 34 12 12
21 30 21 40 0 11 4 16 10 13 6 -3 10 1 10 9 0 9 5 16 11 16 5 0 7 5 4 10 -3 6
-1 10 5 10 6 0 8 5 5 10 -3 6 0 13 8 16 12 4 28 37 26 53 -1 2 6 8 15 13 9 5
14 13 11 18 -3 5 4 14 15 20 11 6 18 15 15 20 -4 6 1 7 11 3 12 -4 15 -3 10 5
-4 7 -1 15 8 18 9 3 13 10 10 15 -3 5 2 9 11 9 9 0 14 4 10 9 -3 6 4 15 15 21
11 6 18 15 15 21 -4 5 1 9 10 9 11 0 15 5 11 15 -3 8 -2 14 2 13 11 -4 52 35
46 44 -3 4 1 8 9 8 8 0 22 10 31 23 9 12 14 16 10 8 -5 -10 -3 -12 5 -7 7 5
10 14 7 22 -3 8 0 11 9 8 7 -3 18 4 25 15 6 12 17 21 26 21 8 0 19 10 24 23 5
12 9 16 9 9 1 -8 14 0 32 17 17 17 48 39 70 49 22 10 36 22 32 27 -5 4 2 5 15
2 12 -3 20 -1 16 4 -3 5 0 9 6 9 6 0 8 5 4 12 -4 7 -3 8 5 4 6 -4 27 2 46 14
19 12 35 18 35 13 0 -4 4 -2 9 5 4 7 17 14 29 15 11 0 18 5 16 9 -5 7 10 12
29 9 4 0 7 3 7 8 0 6 9 8 19 6 11 -2 22 3 25 11 3 9 10 13 15 9 5 -3 13 0 16
6 4 5 13 8 21 5 8 -3 14 0 14 7 0 8 15 13 38 14 44 2 63 6 80 16 7 5 12 3 12
-5 0 -9 3 -9 10 2 5 8 10 11 10 6 0 -5 7 -3 15 4 8 7 15 9 15 4 0 -5 5 -2 10
6 7 10 10 11 10 2 0 -9 8 -9 35 3 20 8 33 10 30 6 -3 -5 4 -7 15 -4 11 3 17 9
15 13 -3 5 8 5 24 0 16 -4 32 -6 35 -3 7 7 206 10 206 3 0 -3 28 -6 63 -6 34
-1 74 -5 88 -8 14 -3 42 -7 62 -8 20 -2 37 -7 37 -12 0 -5 3 -6 7 -3 3 4 13 1
21 -6 12 -9 14 -9 9 0 -5 9 0 8 19 -2 15 -7 33 -11 40 -8 8 3 14 -1 14 -8 0
-7 3 -9 6 -6 4 3 15 2 25 -3 12 -7 19 -6 22 3 3 7 6 5 6 -5 1 -11 8 -16 21
-13 11 2 18 0 15 -6 -4 -5 5 -9 18 -9 14 0 27 -6 30 -14 3 -7 16 -12 30 -11
14 2 28 -3 31 -10 3 -8 13 -11 25 -8 12 3 21 1 21 -5 0 -9 47 -27 63 -24 4 1
7 -2 7 -7 0 -10 39 -27 53 -23 4 1 7 -2 7 -8 0 -5 7 -10 15 -10 9 0 18 -7 21
-15 4 -8 10 -15 16 -15 5 0 6 6 2 13 -4 6 3 2 15 -10 24 -25 36 -30 26 -10 -4
6 0 4 8 -5 8 -10 19 -18 26 -18 6 0 11 -4 11 -10 0 -5 5 -10 11 -10 6 0 17 -7
26 -15 8 -8 19 -13 24 -10 5 4 9 1 9 -5 0 -7 7 -10 14 -7 10 4 13 1 9 -9 -3
-9 2 -14 17 -14 11 0 18 -4 15 -10 -3 -5 1 -10 9 -10 9 0 16 -4 16 -10 0 -5 6
-10 14 -10 8 0 17 -7 20 -16 4 -9 9 -14 13 -10 9 9 43 -24 44 -43 0 -9 3 -11
5 -4 3 7 13 4 28 -10 12 -12 20 -26 18 -31 -3 -5 2 -7 11 -3 16 6 22 -3 18
-26 -1 -5 3 -6 9 -2 5 3 10 1 10 -5 0 -6 5 -8 10 -5 9 6 14 -8 11 -28 -1 -5 2
-6 7 -3 14 9 54 -25 48 -41 -3 -8 -1 -11 4 -8 6 3 10 2 10 -3 0 -5 20 -30 45
-55 25 -26 45 -51 45 -57 0 -5 3 -10 8 -10 4 0 20 -23 37 -50 16 -28 33 -50
38 -50 4 0 5 -4 2 -10 -3 -5 -1 -10 4 -10 6 0 11 -7 11 -15 0 -8 5 -15 10 -15
6 0 10 -7 10 -15 0 -8 5 -15 10 -15 6 0 10 -9 10 -20 0 -11 5 -20 11 -20 5 0
7 -4 4 -10 -3 -5 2 -10 11 -10 14 0 15 -3 6 -12 -14 -14 -16 -32 -3 -24 9 6
24 -30 21 -53 -1 -8 3 -10 11 -5 8 5 11 2 6 -8 -3 -9 -3 -19 1 -22 6 -7 12
-30 14 -53 1 -7 6 -13 11 -13 5 0 7 -6 4 -14 -3 -7 0 -19 6 -26 9 -10 9 -11
-1 -5 -11 6 -12 3 -3 -12 6 -11 7 -23 4 -27 -3 -3 -2 -6 3 -6 5 0 10 -33 12
-73 1 -39 4 -83 5 -97 2 -14 0 -35 -5 -47 -5 -16 -4 -23 5 -23 7 0 8 -3 2 -8
-5 -4 -10 -20 -10 -37 0 -16 -4 -36 -8 -42 -5 -7 -7 -24 -5 -38 3 -14 2 -25
-2 -25 -5 0 -6 -9 -3 -19 3 -10 -3 -31 -12 -45 -10 -14 -14 -26 -10 -26 3 0
-4 -14 -16 -32 -13 -17 -16 -28 -8 -23 12 7 12 6 -1 -11 -8 -10 -19 -22 -25
-26 -6 -5 -4 -8 4 -8 11 0 11 -4 -2 -18 -10 -10 -17 -26 -17 -36 0 -9 -4 -14
-10 -11 -5 3 -10 -3 -10 -14 0 -12 -5 -21 -10 -21 -6 0 -9 -6 -8 -12 2 -7 -2
-12 -9 -11 -7 2 -10 -6 -8 -19 3 -11 2 -18 -2 -15 -7 8 -43 -36 -43 -53 0 -6
-3 -9 -7 -7 -10 5 -43 -30 -35 -37 3 -3 -2 -6 -11 -6 -8 0 -30 -17 -48 -37
-17 -21 -28 -31 -24 -23 4 8 -10 -3 -30 -25 -21 -22 -35 -33 -31 -25 4 8 -1 6
-11 -5 -10 -12 -30 -27 -45 -35 -16 -7 -28 -17 -28 -21 0 -5 -7 -5 -17 -2 -12
5 -14 3 -8 -7 6 -10 4 -12 -8 -7 -10 3 -17 2 -17 -3 0 -5 -12 -13 -27 -16 -16
-4 -34 -11 -40 -17 -7 -5 -13 -6 -13 -1 0 4 -7 -1 -15 -12 -11 -14 -15 -16
-15 -4 0 12 -3 11 -11 -3 -6 -9 -14 -15 -20 -12 -5 4 -9 1 -9 -6 0 -7 -3 -9
-7 -6 -3 4 -12 2 -20 -4 -7 -6 -13 -9 -13 -5 0 6 -71 -18 -102 -35 -12 -6 -18
-6 -18 2 0 8 -4 8 -15 -1 -8 -6 -19 -9 -25 -5 -5 3 -10 2 -10 -4 0 -5 -9 -8
-20 -6 -11 2 -22 -1 -26 -6 -3 -6 -12 -5 -22 3 -9 7 -13 8 -9 2 5 -8 -7 -11
-38 -10 -25 1 -45 -1 -45 -4 0 -3 -30 -4 -67 -2 -38 2 -89 4 -115 5 -27 1 -48
5 -48 8 0 3 -19 6 -42 8 -69 4 -78 5 -78 12 0 4 -12 7 -26 7 -15 0 -30 5 -34
12 -6 9 -9 9 -15 0 -6 -9 -9 -9 -15 -1 -4 7 -17 13 -28 14 -12 1 -22 6 -22 11
0 5 -3 7 -6 3 -4 -3 -19 0 -35 9 -16 8 -29 12 -29 9 0 -4 -13 1 -30 9 -16 9
-44 23 -60 32 -17 8 -35 12 -42 8 -7 -4 -8 -3 -4 4 4 7 1 12 -8 12 -9 0 -16 5
-16 11 0 5 -4 8 -9 4 -6 -3 -20 5 -32 17 -12 13 -19 16 -15 8 5 -9 2 -9 -7 2
-8 10 -17 15 -20 11 -4 -3 -7 -1 -7 5 0 11 -38 28 -53 24 -5 -1 -6 1 -3 6 3 5
-6 14 -19 20 -14 7 -25 16 -25 22 0 5 -7 10 -15 10 -8 0 -15 5 -15 10 0 6 -6
10 -14 10 -8 0 -24 13 -37 29 -13 16 -27 27 -31 25 -4 -3 -8 2 -8 10 0 9 -4
16 -9 16 -4 0 -25 14 -46 30 -21 17 -34 30 -28 30 5 0 15 -6 23 -12 8 -7 6 -3
-4 9 -10 13 -23 20 -27 17 -5 -3 -9 0 -9 6 0 6 -11 22 -25 36 -14 14 -25 28
-25 32 0 4 -11 20 -25 35 -14 15 -23 27 -20 27 4 0 -1 7 -9 16 -9 8 -14 20
-11 25 4 5 -2 6 -12 2 -16 -6 -17 -5 -3 12 9 11 10 16 3 11 -12 -7 -18 5 -14
27 1 4 -6 10 -14 13 -8 3 -12 11 -9 16 4 6 1 14 -6 18 -6 4 -13 19 -13 34 -1
14 -7 28 -14 30 -6 3 -9 14 -6 25 3 12 1 21 -6 21 -7 0 -10 10 -7 25 3 14 1
23 -3 20 -9 -5 -11 12 -14 107 -1 31 -6 54 -11 51 -5 -4 -6 0 0 8 5 8 10 37
11 64 5 77 7 85 16 85 4 0 6 4 2 9 -3 5 -1 12 4 16 5 3 8 14 6 24 -2 11 3 22
12 25 8 4 13 13 9 21 -3 8 -1 15 5 15 6 0 8 4 5 9 -4 5 0 12 6 14 10 4 9 8 -2
17 -13 10 -13 11 0 7 10 -2 27 16 50 53 19 31 40 59 45 61 6 2 9 7 7 12 -1 4
1 6 5 5 5 -2 8 0 8 4 0 4 15 18 32 31 18 13 29 28 25 32 -4 5 -2 5 4 2 6 -3
20 2 30 11 20 19 26 22 45 22 5 0 7 5 3 12 -5 7 -3 8 6 3 7 -4 15 -3 19 4 4 6
19 12 34 13 15 1 27 5 27 9 0 6 72 12 110 9 8 0 25 -1 38 -1 17 -1 22 -6 19
-24 -3 -21 -35 -62 -46 -58 -3 1 -5 -5 -5 -13 1 -9 -1 -13 -4 -10 -9 9 -32
-15 -25 -27 4 -6 0 -8 -9 -5 -10 4 -21 -5 -33 -30 -10 -21 -20 -40 -21 -44 -1
-5 -3 -11 -4 -15 -1 -5 -2 -11 -1 -15 0 -5 -3 -8 -8 -8 -5 0 -8 -11 -5 -25 2
-14 1 -25 -4 -25 -4 0 -8 -9 -8 -20 0 -11 3 -20 6 -20 3 0 6 -23 8 -52 1 -29
6 -54 10 -57 4 -4 9 -15 10 -26 2 -11 8 -21 12 -23 5 -2 7 -9 4 -16 -3 -7 2
-19 11 -26 8 -7 15 -17 15 -23 0 -5 8 -16 18 -24 10 -9 11 -11 2 -7 -10 5 -9
0 4 -14 21 -24 32 -29 20 -10 -4 7 -3 8 4 4 7 -4 12 -15 12 -24 0 -9 14 -26
30 -37 16 -11 30 -27 31 -35 0 -11 2 -11 6 -2 4 9 9 8 21 -6 23 -25 64 -47 82
-43 8 2 12 0 8 -5 -8 -8 36 -34 58 -34 8 0 14 -4 14 -9 0 -4 11 -7 25 -6 14 2
25 -1 25 -5 0 -5 9 -7 20 -5 11 2 20 0 20 -5 0 -5 8 -9 18 -9 9 0 50 -1 91 -4
40 -2 88 -1 107 3 23 5 34 4 34 -4 0 -7 3 -6 9 2 4 8 10 13 12 12 13 -4 89 14
89 22 0 5 4 7 8 4 5 -3 21 2 36 9 16 8 32 13 36 10 4 -3 11 2 14 11 3 8 10 12
16 9 5 -3 10 -1 10 4 0 6 7 11 15 11 7 0 19 8 24 18 6 9 11 14 11 10 0 -5 8 0
18 10 11 9 17 20 15 24 -2 4 4 5 13 1 12 -4 15 -3 10 5 -4 7 -1 12 8 12 10 0
16 9 16 22 0 12 3 18 7 15 8 -9 44 44 37 55 -3 4 0 8 5 8 6 0 11 7 11 15 0 8
5 15 11 15 5 0 8 4 4 9 -3 5 -1 12 5 16 6 4 8 11 5 16 -4 5 -2 9 4 9 5 0 8 11
6 25 -1 14 1 25 5 25 5 0 7 23 7 50 -1 28 2 50 8 50 6 0 3 5 -5 10 -11 7 -11
10 -2 10 9 0 10 5 4 18 -5 9 -7 23 -5 30 3 6 0 12 -5 12 -6 0 -9 12 -7 26 1
14 -3 28 -11 31 -7 2 -11 13 -9 24 2 11 -4 27 -14 36 -12 9 -16 23 -13 36 3
12 1 18 -5 14 -6 -4 -16 7 -23 23 -7 16 -17 27 -23 23 -6 -3 -7 -1 -3 5 8 13
-33 74 -45 66 -8 -5 -25 35 -20 50 1 5 -5 4 -13 -3 -13 -11 -17 -9 -26 13 -5
14 -16 26 -25 26 -8 0 -15 7 -15 16 0 10 -5 14 -16 10 -8 -3 -13 -2 -11 2 3 4
-1 13 -9 20 -8 7 -14 9 -14 5 0 -4 -5 0 -11 10 -6 9 -14 15 -20 12 -5 -4 -9
-1 -9 4 0 6 -6 11 -14 11 -8 0 -17 7 -20 16 -3 8 -10 12 -16 9 -5 -3 -10 -1
-10 5 0 6 -4 9 -10 5 -5 -3 -18 2 -28 12 -10 10 -25 19 -33 21 -8 2 -28 10
-46 19 -17 8 -37 16 -45 17 -7 2 -21 6 -30 10 -9 4 -25 9 -35 11 -10 2 -18 4
-18 5 0 1 -7 3 -15 5 -65 13 -95 17 -163 20 -42 2 -81 7 -86 10 -6 3 -12 2
-14 -3 -3 -4 -23 -7 -44 -6 -21 1 -46 -2 -57 -8 -14 -7 -17 -7 -11 2 6 9 2 9
-15 0 -12 -6 -31 -10 -41 -7 -10 3 -19 2 -19 -2 0 -4 -6 -8 -12 -9 -31 -2 -84
-15 -99 -23 -9 -4 -19 -5 -23 -2 -3 3 -6 2 -6 -4 0 -5 -7 -10 -15 -11 -8 -1
-22 -3 -30 -4 -8 -1 -15 -5 -15 -9 0 -4 -13 -10 -30 -14 -16 -4 -30 -11 -30
-16 0 -5 -3 -8 -7 -7 -14 4 -53 -13 -53 -23 0 -5 -6 -8 -12 -6 -7 1 -12 -4
-10 -11 1 -8 -2 -11 -8 -7 -5 3 -23 -3 -39 -14 -15 -11 -31 -18 -35 -14 -3 3
-6 -1 -6 -10 0 -9 -4 -17 -10 -17 -9 0 -35 -19 -65 -47 -7 -7 -15 -9 -19 -6
-3 4 -6 1 -6 -5 0 -6 -11 -22 -25 -36 -14 -14 -25 -22 -25 -18 0 3 -8 -5 -17
-18 -9 -14 -23 -29 -30 -33 -7 -4 -13 -14 -13 -21 0 -8 -7 -16 -15 -20 -8 -3
-15 -11 -15 -17 0 -7 -8 -18 -17 -25 -14 -11 -15 -13 -3 -14 10 0 7 -5 -8 -16
-12 -8 -22 -22 -22 -30 0 -8 -4 -14 -9 -14 -5 0 -12 -11 -15 -25 -4 -14 -12
-25 -19 -25 -8 0 -7 -4 3 -10 13 -8 12 -10 -3 -10 -10 0 -16 -4 -12 -10 3 -5
1 -17 -4 -27 -9 -17 -23 -52 -25 -63 -1 -3 -5 -11 -9 -17 -5 -8 -3 -13 5 -13
10 0 10 -2 -1 -9 -7 -5 -10 -14 -7 -20 4 -6 2 -11 -4 -11 -7 0 -10 -7 -7 -15
4 -8 2 -17 -3 -20 -5 -3 -7 -12 -3 -20 3 -9 -1 -15 -8 -15 -11 0 -11 -3 1 -10
8 -5 11 -10 5 -10 -6 0 -10 -31 -10 -73 1 -39 -3 -78 -8 -84 -6 -8 -6 -13 1
-13 5 0 9 -18 8 -40 0 -22 2 -40 5 -40 4 0 5 -13 3 -30 -2 -16 0 -30 4 -30 4
0 9 -15 10 -32 2 -18 7 -37 12 -42 5 -5 5 -17 -1 -29 -8 -13 -8 -17 -1 -13 7
4 14 -8 18 -29 3 -20 10 -32 17 -28 6 3 7 1 3 -6 -4 -6 0 -23 8 -36 12 -19 13
-25 4 -25 -8 -1 -7 -6 5 -14 9 -7 17 -21 17 -30 0 -9 5 -16 11 -16 5 0 7 -5 4
-10 -3 -6 0 -12 7 -15 7 -3 14 -17 15 -32 0 -15 7 -32 15 -37 7 -6 22 -28 33
-48 11 -21 23 -38 27 -38 5 0 8 -7 8 -15 0 -8 5 -15 11 -15 6 0 8 -7 5 -16 -3
-8 -2 -13 2 -11 9 5 42 -30 34 -37 -3 -3 0 -6 6 -6 6 0 14 -9 17 -20 3 -11 13
-20 21 -20 8 0 12 -5 9 -10 -3 -6 1 -13 9 -16 9 -3 13 -10 10 -15 -5 -8 10
-13 29 -10 5 1 6 -3 3 -8 -8 -12 23 -43 35 -36 5 4 6 -1 3 -9 -4 -11 0 -16 11
-16 9 0 13 -4 10 -10 -3 -5 -1 -10 5 -10 7 0 28 -16 47 -35 19 -19 38 -35 42
-35 3 0 19 -11 34 -25 15 -14 27 -24 27 -21 0 3 12 -6 26 -19 15 -14 31 -22
37 -18 5 3 7 1 4 -4 -6 -9 11 -22 28 -23 3 0 15 -9 27 -20 12 -11 26 -20 31
-20 4 0 15 -7 24 -16 9 -8 22 -13 30 -10 8 3 12 2 9 -3 -5 -8 28 -28 48 -29 5
0 12 -4 15 -9 8 -11 95 -50 96 -43 1 3 9 -3 19 -13 20 -20 41 -23 30 -4 -4 6
2 4 13 -6 11 -9 23 -14 26 -10 4 3 7 2 7 -4 0 -9 20 -16 84 -29 11 -3 26 -10
35 -17 12 -10 13 -9 6 3 -6 12 -5 13 6 3 7 -7 23 -13 36 -13 13 0 23 -3 23 -7
0 -5 15 -9 33 -10 32 -1 92 -10 92 -13 0 -3 41 -7 90 -11 22 -1 47 -6 56 -10
9 -5 19 -5 23 -2 9 9 36 13 36 5 0 -4 32 -7 70 -7 39 0 70 2 70 5 0 3 24 6 53
6 44 1 102 9 102 14 0 1 16 3 35 6 49 6 75 11 75 13 0 3 36 12 53 13 6 1 12 6
12 12 0 6 5 4 10 -4 8 -12 10 -12 10 -1 0 8 3 11 7 8 3 -4 15 1 26 10 11 10
17 12 13 5 -8 -14 -5 -13 52 17 13 6 27 9 31 6 5 -3 12 2 15 10 3 8 9 15 13
14 14 -3 73 25 73 34 0 4 5 5 10 2 6 -3 10 -1 10 4 0 6 3 10 8 9 14 -5 121 67
123 82 0 11 2 11 6 2 3 -9 10 -7 24 9 10 12 19 18 19 14 0 -5 7 0 16 11 8 10
12 12 8 4 -4 -8 11 5 34 30 23 25 42 42 42 38 0 -4 10 3 23 15 13 12 22 25 20
30 -3 4 3 10 11 13 9 3 16 12 16 19 0 7 7 15 15 19 8 3 15 13 15 21 0 9 4 14
9 10 5 -3 12 4 16 15 4 11 11 18 16 15 5 -4 9 3 9 15 0 12 4 19 9 15 5 -3 15
10 22 29 7 19 17 32 22 29 6 -4 8 3 5 15 -4 12 -3 20 2 17 4 -2 18 17 31 43
13 26 28 50 32 53 5 3 8 8 7 10 -1 2 3 17 9 32 6 16 8 33 5 39 -4 7 -2 8 4 4
11 -6 16 6 13 27 0 4 4 7 10 7 5 0 7 4 4 10 -3 5 1 23 10 39 8 17 14 34 13 38
-2 13 14 67 26 82 8 11 8 13 -1 7 -8 -4 -13 -2 -13 8 0 8 4 18 10 21 5 3 8 19
6 35 -2 17 0 30 4 30 4 0 6 14 4 31 -2 16 0 28 4 25 4 -2 7 27 7 65 0 38 -4
69 -10 69 -5 0 -4 5 3 12 8 8 8 17 1 30 -5 10 -7 22 -4 27 3 5 -1 12 -7 14
-10 4 -10 6 0 6 7 1 11 5 8 9 -3 5 -6 27 -7 50 -2 23 -6 42 -10 42 -4 0 -6 14
-5 31 1 17 -2 36 -8 43 -6 6 -12 22 -12 36 -2 37 -8 64 -16 70 -4 3 -8 20 -10
38 -1 18 -6 32 -10 32 -4 0 -8 11 -8 25 0 14 -5 25 -12 25 -6 0 -8 3 -5 7 4 3
-1 15 -10 26 -10 11 -12 17 -5 13 20 -12 14 5 -10 25 -11 11 -18 19 -13 19 4
0 1 8 -6 17 -12 15 -12 16 1 8 12 -6 11 -4 -2 11 -9 10 -27 43 -40 72 -13 29
-27 49 -31 46 -4 -4 -7 2 -7 13 0 11 -7 26 -15 33 -8 7 -12 16 -10 21 3 5 -3
14 -15 21 -11 7 -20 21 -20 31 0 10 -4 16 -8 13 -5 -3 -15 6 -22 19 -7 14 -17
25 -22 25 -4 0 -8 6 -8 13 0 7 -13 24 -30 37 -16 14 -29 30 -30 35 0 6 -18 25
-40 44 -22 19 -37 37 -35 42 3 4 -7 10 -22 14 -21 5 -24 8 -12 16 9 5 10 9 2
9 -7 0 -23 11 -37 25 -14 14 -30 25 -36 25 -5 0 -10 5 -10 10 0 6 -7 10 -15
10 -8 0 -15 5 -15 11 0 5 5 7 12 3 7 -4 8 -3 4 4 -4 6 -13 9 -21 5 -8 -3 -15
0 -15 7 0 6 -5 8 -12 4 -6 -4 -8 -3 -5 3 4 6 -3 19 -15 29 -12 11 -18 13 -14
7 4 -7 3 -13 -2 -13 -5 0 -12 9 -15 20 -3 11 -12 20 -21 20 -9 0 -16 5 -16 11
0 5 -4 8 -9 4 -5 -3 -16 4 -25 16 -8 12 -18 19 -23 16 -11 -7 -34 19 -25 28 4
4 -4 2 -18 -5 -23 -12 -24 -12 -11 4 12 14 12 16 -3 10 -9 -3 -16 -1 -16 5 0
6 -7 11 -15 11 -8 0 -15 5 -15 11 0 5 -4 7 -10 4 -5 -3 -10 0 -10 7 0 9 -3 9
-10 -2 -8 -13 -10 -12 -10 3 0 10 -8 17 -20 17 -11 0 -20 5 -20 12 0 6 -3 9
-6 5 -3 -3 -26 6 -51 20 -25 14 -42 20 -39 14 5 -7 1 -9 -8 -5 -9 3 -16 10
-16 16 0 5 -4 6 -10 3 -5 -3 -10 -1 -10 5 0 6 -4 8 -10 5 -5 -3 -10 -1 -10 6
0 6 -8 9 -20 6 -14 -4 -20 0 -20 11 0 15 -2 15 -10 2 -7 -11 -10 -11 -10 -2 0
7 -4 10 -10 7 -5 -3 -10 -1 -10 4 0 6 -11 11 -24 11 -14 0 -27 4 -31 9 -3 6
-14 8 -25 6 -13 -3 -18 0 -14 7 5 7 1 9 -9 5 -10 -4 -17 -1 -17 6 0 8 -4 6
-10 -3 -8 -13 -10 -13 -10 1 0 12 -8 16 -30 14 -16 -1 -30 1 -30 5 0 8 -10 10
-80 12 -30 1 -58 6 -61 11 -3 4 -20 9 -37 9 -17 1 -29 5 -26 9 2 5 -12 6 -31
4 -20 -3 -34 -2 -32 2 3 5 -12 8 -34 8 -21 0 -39 -2 -39 -5 0 -3 -36 -3 -80 0
-44 3 -80 3 -80 0 0 -3 -18 -5 -40 -5 -22 0 -40 4 -40 8 0 5 -5 5 -12 1 -7 -4
-35 -9 -63 -10 -27 -1 -72 -5 -100 -9 -27 -4 -60 -7 -72 -7 -13 0 -23 -4 -23
-7 0 -4 -10 -7 -22 -8 -48 -1 -59 -3 -54 -12 4 -5 -8 -7 -25 -4 -26 4 -31 2
-26 -11 5 -13 3 -15 -12 -7 -10 6 -21 8 -23 5 -6 -5 -43 -14 -71 -17 -10 -1
-21 -6 -25 -12 -4 -5 -11 -10 -17 -11 -30 -2 -75 -18 -75 -25 0 -5 -9 -9 -21
-9 -11 0 -18 -3 -16 -7 3 -5 -7 -9 -21 -10 -15 0 -28 -6 -30 -12 -2 -5 -10 -7
-19 -4 -11 4 -14 2 -9 -5 6 -11 -12 -17 -36 -13 -5 0 -8 -4 -8 -9 0 -6 -7 -10
-15 -10 -8 0 -15 -5 -15 -11 0 -5 -4 -7 -10 -4 -5 3 -10 1 -10 -5 0 -6 -5 -8
-10 -5 -6 3 -13 -1 -16 -9 -3 -9 -10 -14 -14 -11 -5 3 -13 -2 -18 -11 -5 -9
-12 -15 -15 -15 -26 4 -37 0 -31 -11 5 -8 2 -9 -10 -5 -9 4 -15 3 -13 -1 6 -9
-13 -26 -33 -30 -8 -2 -24 -12 -36 -23 -11 -10 -24 -16 -29 -12 -4 5 -5 3 -2
-3 3 -6 -7 -18 -24 -28 -16 -9 -29 -22 -29 -27 0 -6 -5 -7 -10 -4 -6 3 -13 -1
-16 -9 -3 -9 -13 -16 -21 -16 -8 0 -11 -4 -8 -10 3 -5 0 -10 -8 -10 -8 0 -23
-11 -33 -25 -10 -14 -25 -25 -33 -25 -8 0 -12 -3 -8 -6 3 -3 -30 -42 -74 -86
-43 -44 -77 -84 -74 -88 3 -5 -4 -11 -15 -15 -11 -4 -18 -10 -15 -14 2 -5 -9
-23 -26 -42 -16 -18 -27 -39 -24 -47 2 -7 1 -11 -3 -9 -4 3 -13 -1 -20 -9 -7
-8 -11 -14 -8 -14 3 0 -10 -23 -29 -52 -19 -28 -31 -56 -28 -61 3 -6 1 -7 -5
-3 -7 4 -12 1 -12 -8 0 -9 -5 -16 -10 -16 -6 0 -9 -3 -8 -7 3 -10 -32 -76 -44
-84 -5 -3 -10 -9 -9 -12 1 -17 -22 -67 -31 -67 -5 0 -7 -4 -3 -9 3 -5 0 -13
-6 -16 -5 -4 -8 -14 -5 -22 3 -8 1 -11 -4 -8 -9 5 -14 -8 -7 -19 1 -2 -6 -13
-16 -24 -11 -12 -16 -26 -12 -31 3 -6 1 -11 -5 -11 -7 0 -10 -6 -8 -12 3 -7
-1 -19 -9 -26 -7 -8 -11 -18 -8 -23 4 -5 1 -9 -5 -9 -6 0 -9 -4 -6 -8 3 -5 -1
-20 -8 -33 -7 -14 -12 -35 -11 -47 1 -12 -2 -22 -6 -22 -5 0 -7 -14 -5 -30 2
-19 -2 -33 -11 -39 -8 -4 -14 -10 -13 -12 5 -10 -13 -80 -22 -85 -6 -4 -6 -9
2 -14 8 -5 7 -12 -5 -24 -12 -12 -13 -16 -3 -16 8 0 9 -3 3 -8 -5 -4 -10 -18
-10 -32 0 -14 -3 -32 -6 -40 -7 -16 -21 -116 -22 -162 -1 -16 -4 -28 -7 -28
-3 0 -5 -45 -5 -100 0 -61 -4 -100 -10 -100 -7 0 -7 -3 0 -8 6 -4 11 -45 11
-92 1 -87 15 -232 28 -290 8 -39 17 -87 20 -102 1 -10 5 -20 8 -24 4 -3 4 -12
1 -20 -3 -8 -1 -14 5 -14 5 0 8 -11 7 -25 -2 -14 0 -25 4 -25 4 0 7 -8 8 -18
2 -28 8 -47 15 -53 5 -3 9 -17 10 -32 1 -15 6 -27 10 -27 4 0 8 -9 8 -20 0
-11 4 -28 9 -38 10 -18 31 -65 52 -117 7 -17 12 -33 11 -37 -1 -5 3 -8 8 -8 5
0 10 -3 9 -7 -2 -16 14 -53 23 -53 5 0 7 -4 4 -9 -3 -5 1 -14 9 -21 8 -7 15
-21 15 -30 0 -10 3 -20 8 -22 9 -4 72 -107 72 -118 0 -5 10 -16 22 -24 12 -9
19 -16 15 -16 -9 0 41 -70 58 -82 5 -4 7 -8 2 -8 -4 0 1 -8 10 -18 10 -10 34
-38 53 -61 62 -75 217 -231 229 -231 7 0 9 -4 6 -10 -6 -9 8 -14 28 -11 5 1 7
-2 4 -6 -2 -5 4 -16 15 -26 10 -9 18 -14 18 -10 0 5 4 3 8 -2 20 -29 250 -187
291 -200 11 -3 21 -11 21 -16 0 -6 4 -8 8 -5 5 3 18 -2 28 -12 10 -9 28 -19
39 -20 11 -2 22 -8 23 -13 2 -5 12 -9 23 -9 10 0 19 -5 19 -11 0 -6 7 -8 15
-5 9 3 18 -1 22 -9 3 -9 10 -14 17 -13 6 1 21 -3 34 -10 12 -7 22 -10 22 -7 0
3 10 0 23 -7 12 -6 31 -13 42 -15 10 -2 22 -7 25 -11 3 -4 14 -8 25 -10 11 -2
39 -10 62 -18 24 -7 57 -16 75 -19 18 -4 35 -9 38 -13 3 -4 14 -7 25 -7 11 1
23 -4 27 -10 5 -6 8 -5 8 3 0 10 5 10 22 -2 16 -11 25 -13 35 -4 10 8 13 7 13
-2 0 -7 7 -10 15 -6 8 3 15 2 15 -2 0 -4 18 -7 40 -7 22 0 40 -2 40 -5 0 -6
83 -12 178 -14 34 0 62 -5 62 -10 0 -4 7 -3 15 4 12 10 15 10 15 -1 0 -10 3
-10 11 -2 8 8 20 8 35 3 13 -5 24 -6 24 -1 0 4 17 8 38 8 63 1 132 8 132 14 0
3 14 5 30 4 17 -1 30 1 30 5 0 3 14 5 30 4 17 -1 30 2 30 7 0 4 10 5 22 0 16
-6 31 -3 48 8 14 9 21 11 17 4 -5 -8 -3 -13 7 -13 9 0 16 5 16 11 0 6 7 9 15
6 8 -4 17 -2 21 4 3 6 12 8 20 5 8 -3 14 -2 14 3 0 5 11 7 25 6 14 -2 23 1 19
6 -3 5 2 10 10 10 17 2 35 5 39 9 4 3 41 11 57 12 8 1 18 5 21 10 3 5 16 10
27 11 12 1 22 5 22 10 0 4 4 6 8 3 5 -3 20 1 35 9 14 7 28 11 31 7 3 -3 6 0 6
7 0 7 5 9 10 6 6 -3 10 0 10 7 0 10 2 10 9 -1 7 -11 10 -11 17 2 5 9 11 16 14
17 32 6 50 14 50 22 0 5 4 7 9 3 5 -3 12 -1 16 5 4 6 11 8 16 5 5 -4 9 -2 9 3
0 6 18 17 40 26 22 9 40 21 40 28 0 6 3 8 6 5 4 -4 19 2 34 13 16 11 33 20 39
20 6 0 11 5 11 11 0 5 4 8 9 5 5 -3 12 1 15 10 3 8 10 12 16 9 6 -3 13 1 16 9
3 9 15 16 26 16 14 0 18 5 14 15 -3 8 -2 14 2 14 17 -2 51 14 46 22 -3 5 1 9
9 9 8 0 25 10 38 23 13 13 32 26 42 30 9 3 17 13 17 21 0 10 6 13 15 10 9 -4
15 0 15 10 0 9 7 16 15 16 8 0 14 6 12 13 -1 6 3 12 8 11 9 -1 121 108 117
114 -1 1 0 1 2 0 2 -2 15 11 27 27 13 17 28 33 34 37 5 4 6 8 1 8 -6 0 5 14
22 31 18 17 29 36 25 42 -3 6 -1 7 5 3 7 -4 12 -3 12 2 0 6 11 20 25 33 13 13
25 30 25 37 0 6 5 12 10 12 6 0 10 7 10 16 0 8 4 13 9 9 5 -3 12 -1 16 5 3 5
0 10 -7 10 -8 1 -5 7 7 16 11 8 19 20 18 25 -2 5 2 9 8 9 5 0 7 5 4 10 -3 6
-3 10 2 10 4 0 15 15 22 32 8 18 20 38 25 45 26 29 31 39 31 53 0 8 7 22 17
31 10 9 18 26 18 37 0 11 5 24 10 27 6 4 8 11 5 16 -4 5 -1 9 5 9 7 0 9 7 6
16 -3 8 -2 13 3 9 5 -3 12 13 16 35 4 22 11 40 16 40 6 0 8 4 4 9 -3 5 -1 12
5 16 6 4 8 11 5 16 -4 5 -1 9 6 9 7 0 9 3 6 7 -4 3 -1 13 6 21 10 13 9 14 -1
8 -11 -6 -11 -4 -3 10 12 20 33 73 36 89 1 6 3 16 3 23 1 7 6 11 11 8 4 -3 6
6 3 21 -3 14 -1 24 4 20 5 -3 10 11 11 30 1 19 8 42 15 51 9 11 10 14 1 8 -7
-4 -13 -3 -13 3 0 5 5 13 10 16 8 5 8 11 1 19 -7 9 -7 17 2 26 9 10 9 11 0 6
-16 -9 -17 6 -2 21 8 8 8 13 0 17 -6 4 -11 12 -11 17 0 6 6 7 13 3 9 -6 9 -4
-1 8 -10 13 -10 17 0 21 10 4 10 6 -1 6 -11 1 -11 4 0 18 10 11 10 14 2 9 -16
-9 -17 6 -2 21 8 8 8 13 0 17 -6 4 -11 12 -11 17 0 6 5 7 11 4 6 -4 5 2 -3 14
-11 17 -11 25 0 42 8 12 9 18 3 14 -6 -3 -11 -2 -11 4 0 5 5 13 10 16 8 5 8
11 1 19 -7 9 -7 17 2 26 9 10 9 11 0 6 -7 -4 -13 -2 -13 3 0 6 6 11 13 11 7 0
8 3 2 8 -16 11 -19 46 -3 36 11 -6 11 -5 0 8 -10 13 -10 17 0 21 10 4 10 6 -1
6 -11 1 -11 4 0 18 10 11 10 14 2 9 -16 -9 -17 6 -2 21 8 8 8 13 0 17 -6 4
-11 12 -11 17 0 6 6 7 13 3 9 -6 9 -5 0 7 -10 12 -10 18 0 29 9 10 9 11 0 6
-7 -4 -13 -3 -13 1 0 5 6 15 13 22 10 11 10 13 0 7 -7 -4 -13 -3 -13 1 0 5 6
15 13 22 10 11 10 13 0 7 -7 -4 -13 -3 -13 1 0 5 6 15 13 22 10 11 10 13 0 7
-16 -9 -17 10 -3 19 8 5 8 11 0 20 -8 10 -8 15 0 20 8 5 8 10 0 20 -8 10 -7
14 2 18 10 4 10 6 -1 6 -11 1 -11 4 0 18 10 11 10 14 2 9 -16 -9 -17 6 -2 21
8 8 8 13 0 17 -6 4 -11 12 -11 17 0 6 4 8 8 5 5 -3 9 1 9 9 0 8 -4 12 -9 9
-13 -8 -9 31 5 45 10 11 10 13 0 7 -16 -9 -17 10 -3 19 8 5 7 11 -1 21 -9 11
-8 14 2 14 11 0 11 2 -1 10 -12 8 -13 11 -1 19 11 7 11 9 0 13 -12 4 -12 8 -1
20 9 11 10 18 2 23 -14 9 -13 28 3 19 10 -6 10 -4 0 7 -7 7 -13 17 -13 22 0 4
6 5 13 1 10 -6 10 -4 0 7 -7 7 -13 17 -13 22 0 4 6 5 13 1 10 -6 10 -4 0 7
-16 16 -17 33 -2 24 6 -4 5 2 -3 14 -11 17 -11 25 0 42 8 12 9 18 3 14 -15 -9
-14 8 2 24 10 11 10 13 0 7 -17 -9 -17 6 0 23 10 11 10 13 0 7 -7 -4 -13 -3
-13 1 0 5 6 15 13 22 7 8 7 11 1 8 -7 -4 -11 3 -11 18 0 15 4 22 11 18 6 -3 6
0 -1 8 -7 7 -13 17 -13 22 0 4 6 5 13 1 10 -6 10 -4 0 7 -7 7 -13 17 -13 22 0
4 6 5 13 1 10 -6 10 -4 0 7 -7 7 -13 17 -13 22 0 4 6 5 13 1 10 -6 10 -4 0 7
-16 16 -17 33 -2 24 6 -4 5 2 -3 14 -11 17 -11 25 0 42 8 12 9 18 3 14 -15 -9
-14 8 2 24 10 11 10 13 0 7 -7 -4 -13 -3 -13 1 0 5 6 15 13 22 10 11 10 13 0
7 -7 -4 -13 -3 -13 1 0 5 6 15 13 22 7 8 7 11 1 8 -7 -4 -11 3 -11 18 0 15 4
22 11 18 6 -3 6 0 -1 8 -7 7 -13 17 -13 22 0 4 6 5 13 1 10 -6 10 -4 0 7 -7 7
-13 17 -13 22 0 4 6 5 13 1 10 -6 10 -4 0 7 -7 7 -13 17 -13 22 0 4 6 5 13 1
10 -6 10 -4 0 7 -16 16 -17 33 -2 24 6 -4 5 2 -3 14 -11 17 -11 25 0 42 8 12
9 18 3 14 -15 -9 -14 8 2 24 10 11 10 13 0 7 -7 -4 -13 -3 -13 1 0 5 6 15 13
22 10 11 10 13 0 7 -7 -4 -13 -3 -13 1 0 5 6 15 13 22 7 8 7 11 1 8 -7 -4 -11
3 -11 18 0 15 4 22 11 18 6 -3 6 0 -1 8 -7 7 -13 17 -13 22 0 4 6 5 13 1 10
-6 10 -4 0 7 -7 7 -13 17 -13 22 0 4 6 5 13 1 10 -6 10 -4 0 7 -7 7 -13 17
-13 22 0 4 6 5 13 1 10 -6 10 -4 0 7 -16 16 -17 33 -2 24 6 -4 5 2 -3 14 -11
17 -11 25 0 42 8 12 9 18 3 14 -15 -9 -14 8 2 24 10 11 10 13 0 7 -7 -4 -13
-3 -13 1 0 5 6 15 13 22 10 11 10 13 0 7 -7 -4 -13 -3 -13 1 0 5 6 15 13 22 7
8 7 11 1 8 -7 -4 -11 3 -11 18 0 15 4 22 11 18 6 -3 6 0 -1 8 -7 7 -13 17 -13
22 0 4 6 5 13 1 10 -6 10 -4 0 7 -7 7 -13 17 -13 22 0 4 6 5 13 1 10 -6 10 -4
0 7 -7 7 -13 17 -13 22 0 4 6 5 13 1 10 -6 10 -4 0 7 -16 16 -17 33 -2 24 6
-4 5 2 -3 14 -11 17 -11 25 0 42 8 12 9 18 3 14 -15 -9 -14 8 2 24 7 8 7 11 1
8 -7 -4 -11 3 -11 18 0 16 4 22 11 18 6 -4 5 1 -3 10 -11 14 -11 17 0 17 9 1
8 4 -4 11 -10 6 -14 15 -10 22 4 7 -1 6 -11 -2 -15 -13 -19 -13 -27 0 -6 10
-9 10 -9 2 0 -7 -6 -13 -14 -13 -8 0 -17 6 -19 13 -4 10 -6 10 -6 0 -1 -7 -7
-13 -15 -13 -8 0 -17 6 -19 13 -4 10 -6 10 -6 0 -1 -7 -12 -13 -26 -13 -14 0
-25 6 -25 13 0 8 -4 7 -10 -3 -8 -12 -11 -13 -19 -1 -7 11 -9 11 -14 0 -5 -12
-7 -12 -15 0 -8 11 -10 11 -15 0 -5 -12 -7 -12 -15 0 -8 11 -10 11 -15 0 -4
-12 -7 -11 -16 1 -7 10 -11 11 -11 3 0 -7 -7 -13 -16 -13 -9 0 -12 5 -8 13 6
10 4 10 -7 0 -7 -7 -17 -13 -22 -13 -4 0 -5 6 -1 13 5 8 2 8 -9 -2 -14 -11
-17 -11 -17 0 0 11 -2 11 -10 -1 -9 -13 -11 -13 -20 0 -6 10 -10 11 -10 3 0
-7 -7 -13 -16 -13 -9 0 -12 5 -8 13 6 9 4 9 -8 -1 -13 -10 -17 -10 -21 0 -4
10 -6 10 -6 1 -1 -7 -7 -13 -15 -13 -8 0 -17 6 -19 13 -4 10 -6 10 -6 0 -1 -7
-7 -13 -15 -13 -8 0 -17 6 -19 13 -4 10 -6 10 -6 0 -1 -7 -7 -13 -15 -13 -8 0
-17 6 -19 13 -4 10 -6 10 -6 0 -1 -7 -10 -13 -21 -13 -11 0 -20 6 -20 13 0 7
-3 8 -8 2 -10 -14 -46 -19 -37 -5 5 8 0 7 -13 -1 -17 -11 -24 -10 -38 2 -11 9
-15 9 -10 2 9 -16 -6 -17 -21 -2 -8 8 -13 8 -17 0 -4 -6 -12 -11 -17 -11 -6 0
-7 5 -4 11 4 6 -2 5 -13 -2 -17 -11 -24 -10 -38 2 -11 9 -15 9 -10 2 9 -16 -6
-17 -21 -2 -8 8 -13 8 -17 0 -4 -6 -12 -11 -17 -11 -6 0 -7 6 -3 13 6 9 4 9
-8 -1 -13 -10 -17 -10 -21 0 -4 10 -6 10 -6 1 -1 -7 -7 -13 -15 -13 -8 0 -17
6 -19 13 -4 10 -6 10 -6 0 -1 -7 -7 -13 -15 -13 -8 0 -17 6 -19 13 -4 10 -6
10 -6 0 -1 -7 -7 -13 -15 -13 -8 0 -17 6 -19 13 -4 10 -6 10 -6 0 -1 -7 -12
-13 -26 -13 -14 0 -25 6 -25 13 0 8 -4 7 -10 -3 -8 -12 -11 -13 -19 -1 -7 11
-9 11 -14 0 -5 -12 -7 -12 -15 0 -8 11 -10 11 -15 0 -5 -12 -7 -12 -15 0 -8
11 -10 11 -15 0 -5 -12 -7 -12 -15 0 -8 11 -10 11 -15 0 -4 -12 -7 -11 -16 1
-7 10 -11 11 -11 3 0 -7 -7 -13 -16 -13 -9 0 -12 5 -8 13 5 8 2 8 -9 -2 -14
-11 -17 -11 -17 0 0 11 -2 11 -10 -1 -9 -13 -11 -13 -20 0 -6 10 -10 11 -10 3
0 -7 -7 -13 -16 -13 -9 0 -12 5 -8 13 6 9 4 9 -8 -1 -13 -10 -17 -10 -21 0 -4
10 -6 10 -6 1 -1 -7 -7 -13 -15 -13 -8 0 -17 6 -19 13 -4 10 -6 10 -6 0 -1 -7
-7 -13 -15 -13 -8 0 -17 6 -19 13 -4 10 -6 10 -6 0 -1 -7 -7 -13 -15 -13 -8 0
-17 6 -19 13 -4 10 -6 10 -6 0 -1 -7 -10 -13 -22 -13 -13 0 -18 4 -13 13 5 8
2 8 -9 -2 -14 -11 -20 -11 -34 0 -14 12 -16 12 -8 0z m1000 -891 c3 -6 -1 -7
-9 -4 -18 7 -21 14 -7 14 6 0 13 -4 16 -10z"/>
<path d="M3950 4186 c0 -2 7 -7 16 -10 8 -3 12 -2 9 4 -6 10 -25 14 -25 6z"/>
<path d="M170 1059 c0 -898 1 -905 20 -906 13 -1 18 2 14 10 -5 8 -3 8 7 -1
17 -16 32 -16 23 1 -6 9 -4 9 7 -1 17 -16 32 -16 23 1 -6 9 -4 9 7 -1 17 -16
32 -16 23 1 -6 9 -4 9 7 -1 17 -16 32 -16 23 1 -6 9 -4 9 7 -1 17 -16 32 -16
23 1 -6 9 -4 9 7 -1 17 -16 32 -16 23 1 -6 10 -4 10 7 0 7 -7 17 -13 22 -13 4
0 5 6 1 13 -6 10 -4 10 7 0 16 -16 33 -17 23 -1 -5 7 -3 8 7 2 19 -12 42 -11
51 1 5 6 8 5 8 -3 0 -8 5 -10 13 -5 18 11 57 11 64 0 3 -5 9 -3 14 4 7 11 9
11 9 1 0 -8 5 -10 12 -5 20 12 37 12 44 1 4 -6 10 -5 15 3 6 10 9 11 9 2 0 -7
5 -13 11 -13 5 0 7 6 3 13 -6 9 -5 9 8 0 8 -7 18 -10 22 -6 10 10 37 13 31 3
-6 -10 15 -8 32 3 8 5 13 3 13 -5 0 -9 3 -9 10 2 9 13 10 13 10 0 0 -13 1 -13
10 0 9 13 10 13 10 0 0 -13 1 -13 10 0 9 13 10 13 10 0 0 -13 1 -13 10 0 9 13
10 13 10 0 0 -13 1 -13 10 0 7 11 10 11 10 2 0 -8 5 -10 13 -5 18 11 38 13 31
2 -3 -5 0 -9 5 -9 6 0 11 6 11 13 0 8 4 7 10 -3 9 -13 10 -13 10 0 0 13 1 13
10 0 9 -13 10 -13 10 0 0 13 1 13 10 0 9 -13 10 -13 10 0 0 13 1 13 10 0 9
-13 10 -13 10 0 0 13 1 13 10 0 9 -13 10 -13 10 0 0 13 1 13 10 0 6 -10 10
-11 10 -2 0 6 5 12 11 12 5 0 7 -5 3 -11 -4 -8 0 -8 15 0 16 9 21 9 21 -1 0
-9 3 -9 10 2 9 13 11 13 20 0 8 -12 10 -12 10 -1 0 11 3 11 17 0 11 -10 14
-10 9 -2 -4 7 -3 13 3 13 5 0 13 -5 16 -10 5 -8 11 -7 21 1 11 9 14 8 14 -2 0
-12 2 -12 9 0 6 9 10 10 16 2 5 -9 10 -9 21 0 11 9 14 8 14 -2 0 -11 2 -11 10
1 8 12 11 13 19 1 7 -11 9 -11 14 0 4 12 7 11 16 -1 6 -8 11 -10 11 -5 0 6 9
11 20 12 13 1 18 -2 13 -10 -5 -9 -3 -9 8 0 12 10 18 10 29 0 10 -9 11 -9 6 0
-4 8 -1 13 8 13 8 0 17 -6 19 -12 4 -10 6 -10 6 0 1 16 28 16 34 0 4 -10 6
-10 6 0 1 16 28 16 34 0 4 -10 6 -10 6 0 1 6 12 12 26 12 14 0 25 -6 25 -12 0
-9 4 -8 10 2 9 13 11 13 20 0 8 -12 10 -12 10 -1 0 11 3 11 17 0 11 -10 14
-10 9 -2 -9 17 6 17 23 1 10 -9 12 -9 7 -1 -8 15 56 15 66 -1 5 -8 8 -7 8 2 0
6 12 12 26 12 17 0 23 -4 18 -12 -6 -9 -3 -9 9 0 9 8 21 11 27 7 5 -3 10 -2
10 3 0 6 9 8 20 5 11 -3 20 -10 20 -17 0 -8 2 -8 8 0 4 6 14 13 22 16 10 4 6
8 -12 13 -16 4 -28 11 -28 17 0 5 -4 7 -8 4 -5 -3 -26 0 -48 6 -21 7 -42 13
-46 14 -5 1 -9 2 -10 3 -2 2 -13 4 -26 7 -12 2 -47 12 -76 23 -30 10 -57 16
-60 13 -3 -3 -6 0 -6 7 0 7 -4 10 -9 6 -5 -3 -12 -1 -16 5 -4 6 -11 8 -16 5
-5 -4 -9 -2 -9 4 0 5 -9 8 -20 6 -11 -2 -18 0 -15 6 4 5 1 10 -4 10 -6 1 -15
2 -20 3 -6 0 -15 6 -22 13 -6 6 -18 9 -25 6 -8 -3 -14 -1 -14 4 0 5 -19 17
-42 28 -24 10 -69 35 -101 57 -32 21 -62 38 -66 38 -5 0 -14 7 -21 15 -7 8
-16 12 -21 9 -5 -3 -9 3 -9 12 0 10 -3 15 -6 11 -3 -3 -11 -1 -18 4 -6 5 -36
27 -66 49 -30 22 -66 49 -80 60 -14 11 -40 33 -59 48 -19 15 -49 41 -67 59
-17 17 -35 29 -38 26 -3 -4 -6 0 -6 8 -1 8 -19 28 -40 44 -21 17 -39 33 -40
37 0 4 -21 28 -46 53 -26 25 -43 45 -38 45 5 1 -2 7 -16 15 -14 8 -21 14 -17
15 5 0 2 6 -5 13 -7 8 -26 31 -43 52 -16 21 -39 50 -50 64 -12 14 -32 43 -45
63 -14 21 -29 38 -33 38 -5 0 -6 4 -2 9 3 5 -1 15 -8 23 -25 26 -110 178 -100
178 4 0 1 5 -7 10 -8 5 -15 13 -15 17 -1 4 -14 35 -30 68 -16 33 -29 65 -30
70 0 6 -3 12 -7 15 -4 3 -9 15 -11 25 -2 11 -9 30 -15 43 -7 12 -10 22 -6 22
3 0 1 6 -5 13 -6 8 -8 17 -4 20 3 4 1 7 -5 7 -7 0 -12 5 -12 11 0 5 5 7 11 3
6 -3 3 5 -6 20 -10 14 -14 26 -10 26 4 0 3 6 -3 13 -6 7 -13 26 -16 42 -2 17
-5 32 -6 35 -1 3 -2 8 -1 13 0 4 -3 7 -7 7 -4 0 -8 10 -9 21 -1 12 -7 27 -13
33 -7 7 -10 -257 -10 -895z"/>
<path d="M4959 1945 c-1 -3 -3 -9 -4 -15 -1 -5 -3 -13 -4 -17 -1 -5 -6 -1 -11
7 -7 11 -8 6 -5 -17 2 -18 -1 -33 -6 -33 -6 0 -7 -9 -4 -20 4 -11 2 -20 -4
-20 -6 0 -11 -11 -11 -24 0 -14 -5 -28 -10 -31 -6 -4 -8 -11 -5 -16 4 -5 1 -9
-5 -9 -6 0 -8 -5 -5 -10 4 -6 1 -18 -7 -27 -11 -14 -11 -16 1 -8 11 6 10 2 -2
-16 -9 -13 -17 -31 -17 -41 0 -10 -4 -18 -8 -18 -5 0 -9 -7 -10 -15 -1 -8 -3
-22 -4 -30 -1 -8 -7 -15 -14 -15 -8 0 -11 -6 -8 -14 3 -8 0 -17 -5 -21 -6 -3
-9 -11 -6 -16 4 -5 1 -9 -5 -9 -6 0 -8 -4 -5 -10 3 -5 1 -10 -4 -10 -6 0 -10
-6 -9 -12 2 -7 -2 -12 -8 -11 -7 1 -10 -6 -7 -17 3 -11 1 -20 -5 -20 -9 0 -18
-20 -20 -44 0 -5 -7 -13 -16 -18 -9 -5 -14 -13 -11 -19 4 -5 1 -9 -5 -9 -6 0
-9 -4 -6 -9 3 -5 -1 -14 -9 -21 -8 -7 -15 -17 -15 -23 0 -5 -8 -16 -17 -24
-10 -8 -11 -11 -3 -7 8 5 0 -9 -18 -31 -17 -22 -32 -45 -32 -52 0 -7 -5 -13
-11 -13 -5 0 -7 -4 -4 -10 3 -5 -1 -10 -10 -10 -9 0 -13 -4 -10 -10 3 -5 1
-10 -5 -10 -6 0 -8 -4 -5 -10 3 -5 -1 -10 -10 -10 -9 0 -13 -5 -10 -10 3 -6
-1 -13 -9 -16 -9 -3 -16 -10 -16 -16 0 -15 -27 -38 -36 -30 -5 4 -2 -1 5 -11
12 -15 12 -17 -2 -12 -8 4 -18 1 -23 -6 -5 -8 -3 -10 6 -4 9 5 11 4 6 -3 -4
-7 -14 -12 -23 -12 -9 0 -13 -3 -10 -7 4 -3 -5 -16 -18 -29 -14 -13 -25 -28
-25 -34 0 -6 -4 -8 -10 -5 -9 6 -14 -7 -11 -27 0 -4 -5 -5 -13 -2 -8 3 -17 0
-22 -7 -5 -8 -3 -10 7 -4 8 4 -5 -10 -28 -32 -24 -22 -40 -43 -36 -47 4 -4 -1
-4 -11 0 -12 5 -17 4 -13 -2 3 -6 -6 -19 -21 -30 -14 -10 -43 -36 -64 -56 -21
-21 -42 -38 -47 -38 -6 0 -17 -10 -25 -22 -9 -12 -16 -18 -16 -13 0 6 -11 -3
-25 -19 -14 -16 -25 -26 -25 -21 0 4 -11 -4 -24 -18 -13 -14 -26 -23 -29 -20
-3 3 -17 -7 -31 -22 -15 -16 -26 -25 -26 -21 0 4 -12 -2 -26 -13 -15 -12 -32
-21 -39 -21 -6 0 -20 -9 -30 -20 -10 -11 -24 -20 -32 -20 -7 0 -13 -3 -13 -7
0 -5 -20 -17 -45 -28 -25 -11 -45 -23 -45 -28 0 -4 -4 -6 -9 -2 -6 3 -13 0
-18 -7 -4 -7 -12 -13 -18 -14 -19 -1 -75 -26 -75 -33 0 -4 -6 -8 -12 -9 -32
-2 -62 -13 -79 -28 -15 -14 -19 -14 -19 -3 -1 10 -4 9 -11 -4 -6 -9 -14 -15
-19 -12 -5 3 -11 1 -15 -5 -4 -6 -11 -8 -16 -5 -5 4 -9 2 -9 -4 0 -5 -9 -8
-20 -6 -11 2 -20 1 -20 -3 0 -4 -10 -8 -22 -9 -11 -1 -24 -6 -27 -10 -3 -5
-13 -8 -21 -8 -8 1 -20 -3 -27 -8 -6 -4 -28 -9 -47 -10 -32 -2 -34 -3 -19 -15
12 -9 19 -9 21 -2 2 6 10 3 19 -7 8 -10 12 -13 9 -6 -4 8 16 11 69 11 54 0 73
-3 69 -11 -4 -8 -2 -7 7 1 18 16 83 16 73 0 -6 -10 -4 -10 7 0 17 16 76 16 82
0 4 -10 6 -10 6 0 1 6 9 12 19 12 10 0 24 -6 31 -12 11 -10 13 -10 7 0 -10 16
35 16 53 -1 8 -7 11 -7 8 -1 -9 17 622 17 642 1 12 -9 13 -9 7 0 -10 17 222
16 243 -1 11 -8 13 -8 7 2 -10 16 35 16 53 -1 9 -7 11 -8 7 0 -8 15 144 15
163 0 12 -9 13 -9 7 1 -5 9 11 12 73 12 78 0 109 12 80 31 -12 7 -12 9 0 9 11
0 11 3 0 17 -10 11 -10 14 -1 9 7 -4 12 -1 12 9 0 10 -5 13 -12 9 -10 -6 -10
-5 -1 7 10 12 10 18 0 29 -9 10 -9 11 0 6 16 -9 13 35 -2 46 -6 5 -5 8 4 8 10
0 11 3 2 14 -9 11 -9 16 0 21 8 6 7 10 -2 16 -11 7 -11 9 -1 9 8 0 10 5 5 12
-11 19 -12 37 -2 44 6 4 6 11 -1 19 -8 10 -8 15 1 20 8 6 7 10 -2 16 -10 6
-11 9 -1 9 6 0 12 5 12 11 0 5 -4 8 -8 5 -4 -2 -8 4 -8 14 0 10 3 17 7 14 4
-2 6 4 4 13 -2 10 -4 18 -5 18 -1 0 -3 8 -5 18 -2 9 1 15 6 11 5 -3 9 0 9 5 0
6 -6 11 -12 11 -9 0 -8 4 2 10 13 9 13 10 0 10 -13 0 -13 1 0 10 13 9 13 10 0
10 -13 0 -13 1 0 10 13 9 13 10 0 10 -12 0 -12 2 -1 9 7 5 9 11 4 14 -11 7
-11 46 0 65 5 7 3 12 -5 12 -9 0 -9 3 2 10 13 9 13 10 0 10 -12 0 -12 2 -1 9
7 5 9 11 4 14 -11 7 -11 46 0 65 5 6 4 12 -1 12 -5 0 -9 7 -9 15 0 8 4 12 9 9
4 -3 8 0 8 5 0 6 -6 11 -12 11 -9 0 -8 4 2 10 13 9 13 10 0 10 -13 0 -13 1 0
10 13 9 13 10 0 10 -13 0 -13 1 0 10 13 9 13 10 0 10 -13 0 -13 1 0 10 13 9
13 10 0 10 -13 0 -13 1 0 10 13 9 13 10 0 10 -13 0 -13 1 0 10 13 9 13 10 0
10 -13 0 -13 1 0 10 13 9 13 10 0 10 -13 0 -13 1 0 10 13 9 13 10 0 10 -13 0
-13 1 0 10 13 9 13 10 0 10 -13 0 -13 1 0 10 13 9 13 10 0 10 -13 0 -13 1 0
10 13 9 13 10 0 10 -13 0 -13 1 0 10 13 9 13 10 0 10 -13 0 -13 1 0 10 13 9
13 10 0 10 -13 0 -13 1 0 10 13 9 13 10 0 10 -13 0 -13 1 0 10 10 6 11 10 3
10 -7 0 -13 5 -13 11 0 5 4 8 8 5 5 -3 9 1 9 9 0 8 -5 11 -11 8 -6 -4 -5 1 3
10 11 14 11 17 0 17 -11 0 -11 2 1 10 10 6 11 10 2 10 -14 0 -12 21 3 32 6 5
4 8 -5 8 -13 0 -13 1 0 10 12 8 12 10 1 10 -11 0 -11 3 0 17 10 11 10 14 2 9
-7 -4 -13 -2 -13 3 0 6 5 11 11 11 8 0 8 4 0 14 -9 11 -9 15 1 19 10 4 10 6 1
6 -7 1 -13 6 -13 12 0 5 5 7 11 3 8 -5 8 -1 0 14 -8 15 -8 22 2 25 9 4 9 6 0
6 -7 1 -13 6 -13 12 0 5 4 8 8 5 5 -3 9 1 9 9 0 8 -5 15 -10 15 -5 0 -4 6 2
14 8 10 9 16 1 21 -5 3 -10 11 -10 16 0 6 5 7 10 4 13 -8 8 17 -5 28 -6 4 -4
11 5 17 11 7 11 10 2 10 -8 0 -10 5 -5 13 10 16 11 87 1 81 -5 -3 -8 -1 -8 5
0 5 5 13 11 17 8 4 7 9 -2 15 -11 7 -11 9 1 9 13 0 13 1 0 10 -13 9 -13 10 0
10 13 0 13 1 0 10 -13 9 -13 11 0 20 11 7 11 10 2 10 -8 0 -10 5 -5 13 9 14
13 37 7 37 -2 0 -5 -2 -5 -5z"/>
</g>
</svg>
